<?xml version="1.0" encoding="utf-8"?>
<!-- Generator: Adobe Illustrator 22.0.1, SVG Export Plug-In . SVG Version: 6.00 Build 0)  -->
<svg version="1.1" id="Layer_1" xmlns="http://www.w3.org/2000/svg" xmlns:xlink="http://www.w3.org/1999/xlink" x="0px" y="0px"
	 viewBox="0 0 792 188" style="enable-background:new 0 0 792 188;" xml:space="preserve">
<g>
	<g>
		<g>
			<g>
				<path class="st0" d="M637.6,132.1V52.6l-31,59.2h-12.7l-31-59.2v79.5h-23.4V12h25l35.5,68.4L636,12h24.9v120.1H637.6z"/>
				<path class="st0" d="M756.3,118.6c-9.2,9.6-19.9,14.4-32,14.4c-7.7,0-14.9-1.7-21.7-5.1c-6.8-3.4-12.7-7.9-17.7-13.6
					c-5-5.7-9-12.3-11.8-19.7c-2.9-7.4-4.3-15.2-4.3-23.2c0-8.2,1.4-16,4.3-23.3c2.9-7.3,6.9-13.6,12-19.1c5.1-5.5,11.2-9.8,18.1-13
					c6.9-3.2,14.5-4.8,22.6-4.8c10.9,0,20.3,2.4,28.1,7.1c7.8,4.7,13.6,11.1,17.6,19.1l-17.4,12.9c-2.9-6-7-10.5-12.1-13.7
					c-5.1-3.2-10.8-4.7-17-4.7c-5,0-9.4,1.1-13.5,3.2c-4,2.1-7.4,5.1-10.2,8.8c-2.8,3.7-5,8-6.6,12.9c-1.6,4.9-2.4,10-2.4,15.4
					c0,5.6,0.8,10.9,2.5,15.8c1.7,4.9,4.1,9.2,7.1,12.8c3,3.6,6.6,6.5,10.7,8.5c4.1,2.1,8.7,3.1,13.6,3.1c11.1,0,21-5.5,29.9-16.4
					v-8.5h-24.2V70.4h43.5v61.8h-19.3V118.6z"/>
				<g>
					<path class="st0" d="M415.8,132.1L465.5,12h18.9l47.2,120.1H507l-11-29.9h-44.5l-11,29.9H415.8z M475,37.2l-19.7,48.6h36.4
						L475,37.2z"/>
				</g>
			</g>
			<polygon class="st0" points="382.2,132.1 407.9,132.1 457.7,12 432.1,12 			"/>
			<polygon class="st0" points="348.7,132.1 374.4,132.1 424.2,12 398.6,12 			"/>
		</g>
		<g>
			<path class="st0" d="M348.9,162.7c0-1.7,0.3-3.3,0.9-4.9c0.6-1.6,1.4-3.1,2.5-4.4c1.1-1.3,2.5-2.3,4.1-3.2
				c1.6-0.8,3.5-1.2,5.5-1.2c2.4,0,4.5,0.6,6.2,1.7c1.7,1.1,3,2.6,3.8,4.3l-2.2,1.3c-0.4-0.9-1-1.7-1.6-2.3c-0.6-0.6-1.3-1.1-2-1.5
				c-0.7-0.4-1.5-0.7-2.2-0.8c-0.8-0.2-1.5-0.3-2.3-0.3c-1.6,0-3.1,0.3-4.4,1c-1.3,0.7-2.3,1.5-3.2,2.6s-1.5,2.3-1.9,3.7
				c-0.4,1.4-0.7,2.7-0.7,4.1c0,1.5,0.3,3,0.8,4.4c0.5,1.4,1.2,2.6,2.2,3.7c0.9,1.1,2,1.9,3.2,2.6c1.2,0.6,2.6,0.9,4.1,0.9
				c0.8,0,1.6-0.1,2.4-0.3c0.8-0.2,1.6-0.5,2.3-0.9c0.8-0.4,1.5-1,2.1-1.6c0.6-0.6,1.2-1.4,1.6-2.3l2.2,1.2c-0.4,1-1.1,1.9-1.8,2.7
				c-0.8,0.8-1.7,1.5-2.7,2c-1,0.5-2,1-3.1,1.2c-1.1,0.3-2.2,0.4-3.2,0.4c-1.9,0-3.6-0.4-5.2-1.2c-1.6-0.8-2.9-1.9-4-3.2
				c-1.1-1.3-2-2.8-2.6-4.5C349.2,166.2,348.9,164.4,348.9,162.7z"/>
			<path class="st0" d="M412.6,176.6v-27.5h11.5c1.2,0,2.3,0.3,3.3,0.8s1.9,1.2,2.6,2c0.7,0.8,1.3,1.7,1.7,2.8
				c0.4,1,0.6,2.1,0.6,3.1c0,1-0.1,2-0.4,2.9c-0.3,0.9-0.7,1.7-1.3,2.5c-0.5,0.7-1.2,1.4-1.9,1.9c-0.7,0.5-1.6,0.8-2.5,1l6.7,10.6
				h-3l-6.5-10.1h-8.1v10.1H412.6z M415.3,164.1h9c0.8,0,1.5-0.2,2.2-0.5c0.7-0.3,1.2-0.8,1.7-1.4c0.5-0.6,0.8-1.3,1.1-2
				c0.3-0.7,0.4-1.5,0.4-2.4c0-0.8-0.1-1.6-0.4-2.4c-0.3-0.8-0.7-1.4-1.2-2c-0.5-0.6-1.1-1-1.8-1.4c-0.7-0.3-1.4-0.5-2.1-0.5h-8.7
				V164.1z"/>
			<path class="st0" d="M491.8,174.2v2.4h-18.4v-27.5h18v2.4h-15.4v9.9h13.4v2.3h-13.4v10.5H491.8z"/>
			<path class="st0" d="M529.6,176.6l11.4-27.5h2.2l11.4,27.5h-2.9l-3.5-8.6h-12.3l-3.5,8.6H529.6z M542.1,152.3l-5.6,13.6h11.1
				L542.1,152.3z"/>
			<path class="st0" d="M610.7,151.5H601v25.1h-2.7v-25.1h-9.7v-2.4h22.2V151.5z"/>
			<path class="st0" d="M650.3,176.6v-27.4h2.7v27.4H650.3z"/>
			<path class="st0" d="M695.1,149.1l9.8,24.1l9.7-24.1h2.8l-11.4,27.5h-2.3l-11.4-27.5H695.1z"/>
			<path class="st0" d="M775.2,174.2v2.4h-18.4v-27.5h18v2.4h-15.4v9.9h13.4v2.3h-13.4v10.5H775.2z"/>
		</g>
	</g>
	<g>
		<path class="st0" d="M16.4,105.7V72.1h11.2c2.7,0,5,0.4,7,1.3c2,0.9,3.7,2.1,5,3.6s2.3,3.3,3,5.3c0.7,2,1,4.2,1,6.5
			c0,2.6-0.4,4.9-1.1,6.9c-0.7,2.1-1.8,3.8-3.2,5.3c-1.4,1.5-3.1,2.6-5,3.4c-2,0.8-4.2,1.2-6.6,1.2H16.4z M41.2,88.8
			c0-2.1-0.3-4.1-0.9-5.9c-0.6-1.8-1.5-3.3-2.6-4.6c-1.2-1.3-2.6-2.3-4.2-3c-1.7-0.7-3.6-1.1-5.8-1.1h-8.8v29.3h8.8
			c2.2,0,4.2-0.4,5.9-1.1c1.7-0.7,3.1-1.8,4.2-3.1c1.1-1.3,2-2.9,2.6-4.7C40.9,92.9,41.2,90.9,41.2,88.8z"/>
		<path class="st0" d="M60.2,106.2c-1.7,0-3.3-0.3-4.8-1c-1.5-0.7-2.8-1.6-3.9-2.8c-1.1-1.2-1.9-2.6-2.6-4.1c-0.6-1.5-0.9-3.2-0.9-5
			c0-1.7,0.3-3.4,0.9-4.9c0.6-1.5,1.5-2.9,2.5-4c1.1-1.2,2.4-2.1,3.8-2.7c1.5-0.7,3.1-1,4.8-1c1.7,0,3.3,0.3,4.8,1
			c1.5,0.7,2.7,1.6,3.8,2.7c1.1,1.2,1.9,2.5,2.5,4c0.6,1.5,0.9,3.2,0.9,4.9c0,0.2,0,0.4,0,0.6c0,0.2,0,0.4,0,0.4H50.5
			c0.1,1.4,0.4,2.7,1,4c0.6,1.2,1.3,2.3,2.2,3.2c0.9,0.9,1.9,1.6,3,2.1c1.1,0.5,2.4,0.8,3.6,0.8c0.9,0,1.7-0.1,2.5-0.4
			c0.8-0.2,1.6-0.6,2.3-1c0.7-0.4,1.3-0.9,1.9-1.5c0.6-0.6,1-1.2,1.3-1.9l2.1,0.6c-0.4,0.9-0.9,1.7-1.6,2.4
			c-0.7,0.7-1.5,1.4-2.4,1.9c-0.9,0.5-1.9,1-3,1.3C62.4,106,61.3,106.2,60.2,106.2z M69.9,92.4c-0.1-1.5-0.4-2.8-1-4
			c-0.6-1.2-1.3-2.2-2.1-3.1c-0.9-0.9-1.9-1.5-3-2s-2.4-0.7-3.6-0.7c-1.3,0-2.5,0.2-3.6,0.7c-1.1,0.5-2.1,1.2-3,2
			c-0.9,0.9-1.6,1.9-2.1,3.1c-0.5,1.2-0.8,2.5-0.9,4H69.9z"/>
		<path class="st0" d="M85.2,106.2c-1.9,0-3.7-0.3-5.4-0.9c-1.7-0.6-3.3-1.6-4.5-2.8l1.2-1.6c1.3,1.2,2.7,2.1,4.1,2.7
			c1.4,0.6,3,0.9,4.7,0.9c2.1,0,3.9-0.4,5.2-1.4c1.3-0.9,2-2.2,2-3.8c0-0.8-0.2-1.4-0.5-1.9c-0.3-0.5-0.8-1-1.5-1.3
			c-0.7-0.4-1.5-0.7-2.5-1c-1-0.3-2.1-0.6-3.4-0.9c-1.4-0.3-2.6-0.6-3.6-0.9c-1-0.3-1.9-0.7-2.5-1.1c-0.7-0.4-1.2-1-1.5-1.6
			c-0.3-0.6-0.5-1.4-0.5-2.4c0-1.2,0.2-2.3,0.7-3.2c0.5-0.9,1.1-1.7,2-2.3c0.8-0.6,1.8-1.1,2.9-1.4c1.1-0.3,2.3-0.4,3.5-0.4
			c1.9,0,3.6,0.3,5.1,1c1.5,0.6,2.6,1.5,3.5,2.5l-1.3,1.3c-0.8-0.9-1.9-1.7-3.2-2.1s-2.7-0.7-4.2-0.7c-0.9,0-1.8,0.1-2.6,0.3
			c-0.8,0.2-1.5,0.5-2.1,0.9c-0.6,0.4-1.1,0.9-1.4,1.6c-0.3,0.6-0.5,1.4-0.5,2.3c0,0.7,0.1,1.3,0.4,1.8c0.2,0.4,0.6,0.8,1.1,1.1
			c0.5,0.3,1.2,0.6,2,0.8c0.8,0.2,1.8,0.5,2.9,0.8c1.5,0.4,2.9,0.7,4.1,1.1c1.2,0.3,2.2,0.8,3,1.3c0.8,0.5,1.4,1.1,1.8,1.8
			c0.4,0.7,0.6,1.6,0.6,2.7c0,2.2-0.9,4-2.6,5.3C90.4,105.5,88.1,106.2,85.2,106.2z"/>
		<path class="st0" d="M100.1,75.5v-4.4h2.4v4.4H100.1z M100.1,105.7V81.1h2.4v24.6H100.1z"/>
		<path class="st0" d="M119.8,106.1c-1.7,0-3.3-0.4-4.7-1.1c-1.4-0.7-2.7-1.7-3.7-2.8s-1.8-2.5-2.4-4.1c-0.6-1.5-0.9-3.1-0.9-4.7
			c0-1.7,0.3-3.3,0.8-4.8c0.6-1.5,1.3-2.9,2.3-4.1c1-1.2,2.2-2.1,3.6-2.8c1.4-0.7,2.9-1,4.6-1c2.1,0,4,0.6,5.6,1.7
			c1.6,1.1,3,2.5,4.1,4.1v-5.4h2.1v25.1c0,1.7-0.3,3.1-0.9,4.4c-0.6,1.3-1.5,2.3-2.5,3.2c-1.1,0.8-2.3,1.5-3.7,1.9
			c-1.4,0.4-2.9,0.6-4.4,0.6c-1.4,0-2.7-0.1-3.8-0.4c-1.1-0.3-2.1-0.6-3-1.1c-0.9-0.5-1.6-1.1-2.3-1.8c-0.7-0.7-1.3-1.5-1.8-2.3
			l1.6-1.1c1,1.7,2.3,2.9,4,3.7c1.7,0.8,3.5,1.2,5.4,1.2c1.3,0,2.5-0.2,3.6-0.5c1.1-0.3,2.1-0.9,2.9-1.5s1.5-1.5,2-2.5
			c0.5-1,0.7-2.2,0.7-3.6v-5.4c-1,1.6-2.4,2.9-4,3.8C123.4,105.6,121.6,106.1,119.8,106.1z M120.4,104c1,0,2.1-0.2,3-0.6
			c1-0.4,1.9-0.9,2.7-1.5c0.8-0.6,1.5-1.3,2-2.1c0.5-0.8,0.9-1.6,0.9-2.4v-8.1c-0.4-0.9-0.9-1.8-1.5-2.6c-0.6-0.8-1.4-1.5-2.2-2.1
			c-0.8-0.6-1.7-1-2.6-1.4c-0.9-0.3-1.9-0.5-2.8-0.5c-1.5,0-2.8,0.3-4,0.9c-1.2,0.6-2.2,1.5-3,2.5c-0.8,1-1.4,2.2-1.8,3.4
			c-0.4,1.3-0.6,2.6-0.6,3.9c0,1.4,0.3,2.8,0.8,4c0.5,1.3,1.2,2.4,2.1,3.4c0.9,1,1.9,1.8,3.1,2.3C117.7,103.8,119,104,120.4,104z"/>
		<path class="st0" d="M158.9,105.7h-2.4V92c0-3.2-0.5-5.5-1.4-7c-0.9-1.5-2.3-2.2-4.3-2.2c-1,0-2.1,0.2-3.1,0.6
			c-1,0.4-2,0.9-2.8,1.6c-0.9,0.7-1.6,1.5-2.3,2.4c-0.7,0.9-1.2,1.9-1.5,3v15.3h-2.4V81.1h2.2v5.9c0.5-0.9,1.1-1.8,1.9-2.6
			c0.8-0.8,1.6-1.4,2.5-2c0.9-0.6,1.9-1,3-1.3c1.1-0.3,2.1-0.4,3.2-0.4c2.7,0,4.6,0.9,5.7,2.8c1.1,1.9,1.7,4.6,1.7,8.1V105.7z"/>
		<path class="st0" d="M176.4,106.2c-1.7,0-3.3-0.3-4.8-1c-1.5-0.7-2.8-1.6-3.9-2.8s-1.9-2.6-2.6-4.1c-0.6-1.5-0.9-3.2-0.9-5
			c0-1.7,0.3-3.4,0.9-4.9c0.6-1.5,1.5-2.9,2.5-4c1.1-1.2,2.4-2.1,3.8-2.7s3.1-1,4.8-1c1.7,0,3.3,0.3,4.8,1c1.5,0.7,2.7,1.6,3.8,2.7
			c1.1,1.2,1.9,2.5,2.5,4c0.6,1.5,0.9,3.2,0.9,4.9c0,0.2,0,0.4,0,0.6c0,0.2,0,0.4,0,0.4h-21.7c0.1,1.4,0.4,2.7,1,4
			c0.6,1.2,1.3,2.3,2.2,3.2c0.9,0.9,1.9,1.6,3,2.1c1.1,0.5,2.4,0.8,3.6,0.8c0.9,0,1.7-0.1,2.5-0.4c0.8-0.2,1.6-0.6,2.3-1
			c0.7-0.4,1.3-0.9,1.9-1.5c0.6-0.6,1-1.2,1.3-1.9l2.1,0.6c-0.4,0.9-0.9,1.7-1.6,2.4c-0.7,0.7-1.5,1.4-2.4,1.9c-0.9,0.5-1.9,1-3,1.3
			C178.7,106,177.6,106.2,176.4,106.2z M186.1,92.4c-0.1-1.5-0.4-2.8-1-4c-0.6-1.2-1.3-2.2-2.1-3.1c-0.9-0.9-1.9-1.5-3-2
			s-2.4-0.7-3.6-0.7c-1.3,0-2.5,0.2-3.6,0.7s-2.1,1.2-3,2c-0.9,0.9-1.6,1.9-2.1,3.1c-0.5,1.2-0.8,2.5-0.9,4H186.1z"/>
		<path class="st0" d="M203.8,106.2c-1.7,0-3.3-0.4-4.7-1.1c-1.5-0.7-2.7-1.7-3.8-2.8s-1.9-2.5-2.5-4.1c-0.6-1.5-0.9-3.1-0.9-4.8
			c0-1.7,0.3-3.3,0.9-4.9c0.6-1.5,1.4-2.9,2.4-4.1c1-1.2,2.2-2.1,3.6-2.8c1.4-0.7,2.9-1,4.5-1c1.1,0,2.1,0.2,3.1,0.5
			c1,0.3,1.8,0.7,2.7,1.3s1.5,1.1,2.2,1.8c0.7,0.7,1.2,1.4,1.7,2.2V71.1h2.4v31.3c0,0.8,0.3,1.2,1,1.2v2.1c-0.2,0-0.3,0-0.4,0
			c-0.1,0-0.3,0-0.4,0c-0.7,0-1.3-0.2-1.7-0.7c-0.4-0.4-0.6-0.9-0.6-1.5v-2.8c-1,1.6-2.4,3-4.1,3.9
			C207.4,105.7,205.6,106.2,203.8,106.2z M204.2,104c0.9,0,1.8-0.2,2.7-0.5s1.9-0.8,2.7-1.4c0.9-0.6,1.6-1.3,2.2-2.1
			c0.6-0.8,0.9-1.6,1-2.6v-8.1c-0.3-0.9-0.8-1.7-1.5-2.5c-0.6-0.8-1.4-1.5-2.2-2.1c-0.8-0.6-1.7-1.1-2.7-1.4
			c-0.9-0.3-1.9-0.5-2.7-0.5c-1.4,0-2.7,0.3-3.9,0.9c-1.2,0.6-2.1,1.4-3,2.4c-0.8,1-1.5,2.1-1.9,3.4c-0.4,1.3-0.7,2.6-0.7,4
			c0,1.4,0.3,2.8,0.8,4c0.5,1.3,1.2,2.4,2.1,3.4c0.9,1,1.9,1.8,3.1,2.3C201.5,103.8,202.8,104,204.2,104z"/>
		<path class="st0" d="M260.7,97c0,1.2-0.2,2.4-0.7,3.4c-0.5,1.1-1.1,2-1.9,2.8c-0.8,0.8-1.8,1.4-2.9,1.8c-1.1,0.4-2.3,0.7-3.5,0.7
			h-15.7V72.1h15.7c1.2,0,2.2,0.3,3.2,0.8c0.9,0.5,1.8,1.2,2.4,2c0.7,0.8,1.2,1.7,1.5,2.7c0.4,1,0.5,2.1,0.5,3.1
			c0,1.7-0.4,3.3-1.3,4.7c-0.9,1.4-2,2.5-3.6,3.1c1.9,0.6,3.5,1.6,4.6,3.2C260.2,93.2,260.7,95,260.7,97z M238.4,74.2v13.5h12.3
			c0.9,0,1.8-0.2,2.5-0.6c0.8-0.4,1.4-0.9,2-1.5c0.6-0.6,1-1.3,1.3-2.2s0.5-1.7,0.5-2.5c0-0.9-0.2-1.8-0.4-2.6
			c-0.3-0.8-0.7-1.5-1.2-2.1c-0.5-0.6-1.1-1.1-1.9-1.5c-0.7-0.4-1.5-0.5-2.4-0.5H238.4z M258.3,96.7c0-0.9-0.2-1.7-0.5-2.6
			c-0.3-0.8-0.8-1.6-1.3-2.2c-0.6-0.6-1.2-1.2-2-1.5c-0.8-0.4-1.6-0.6-2.5-0.6h-13.6v13.8h13.3c0.9,0,1.8-0.2,2.6-0.6
			s1.5-0.9,2.1-1.5c0.6-0.6,1.1-1.4,1.4-2.2C258.1,98.4,258.3,97.5,258.3,96.7z"/>
		<path class="st0" d="M267.9,114.1c0.3,0,0.7,0,1.3,0c0.6,0,1-0.1,1.3-0.3c0.1-0.1,0.3-0.2,0.5-0.5c0.2-0.2,0.4-0.6,0.7-1.2
			c0.3-0.6,0.6-1.4,1.1-2.4c0.4-1,1-2.4,1.7-4l-11-24.6h2.5l9.8,22.3l9.1-22.3h2.3l-13.5,32.4c-0.5,1.1-1.1,1.9-1.9,2.3
			c-0.8,0.4-1.7,0.5-2.8,0.5c-0.2,0-0.3,0-0.5,0s-0.3,0-0.5,0V114.1z"/>
		<path class="st0" d="M291.6,85.2v-4h2v4H291.6z M291.6,105.7v-4h2v4H291.6z"/>
	</g>
</g>
</svg>
